INDEX VERSION 1.126+C:\Users\106564\SparkleShare\c306\.metadata\.plugins\org.eclipse.jdt.core
1498219845.index
163172794.index
4173023868.index
3888168641.index
499023622.index
1115467115.index
4155206848.index
4193231828.index
1281425229.index
30765161.index
305854171.index
3065916431.index
456234509.index
3436385877.index
3974580528.index
633019319.index
3048089362.index
3705660124.index
3265861508.index
1995173708.index
3133528496.index
3597016957.index
3685885637.index
1697886153.index
1657330681.index
2883113546.index
2404155547.index
