<?xml version="1.0" encoding="UTF-8"?>
<session version="1.0">
<refactoring comment="Move element &apos;weather.xml&apos; to &apos;P12&apos;&#x0D;&#x0A;- Original project: &apos;P12&apos;&#x0D;&#x0A;- Destination element: &apos;P12&apos;&#x0D;&#x0A;- Original element: &apos;weather.xml&apos;&#x0D;&#x0A;- Update references to refactored element" description="Move file" destination="=P12" element1="src/weather.xml" files="1" flags="589830" folders="0" id="org.eclipse.jdt.ui.move" policy="org.eclipse.jdt.ui.moveResources" qualified="false" references="true" stamp="1358819401539" units="0" version="1.0"/>
</session>