<?xml version="1.0" encoding="UTF-8"?>
<session version="1.0">
<refactoring comment="Delete resource &apos;P09&apos;" deleteContents="true" description="Delete resource &apos;P09&apos;" element1="/P09" flags="7" id="org.eclipse.ltk.core.refactoring.delete.resources" resources="1" stamp="1355191812256"/>
</session>